Getting Started with pTRAPPING • pTRAPPING
…
# Inspect the per-gene fold enrichment
pacap_de$fe
#> # A tibble: 8,863 × 4
#>    Gene       FE_1  FE_2 log2_mean_FE
#>    <chr>     <dbl> <dbl>        <dbl>
#>  1 Adcyap1    7.87  6.64         2.86
#>  2 Bdnf       4.98 10.1          2.91
#>  3 Ucn3       6.80 30.4          4.22
#>  4 Gng8       8.47 18.6          3.76
#>  5 Nme4       5.26 15.3          3.36
#>  6 Nxph4     11.0  20.6          3.98
#>  7 Hist1h2bg 13.5   1.72         2.93
#>  8 Ghrh       4.41  9.91         2.84
#>  9 Hist1h4m   5.54  4.82         2.37
#> 10 Samd3      5.44  6.43         2.57
#> # ℹ 8,853 more rows
…
# Inspect the per-gene fold enrichment
bdnf_de$fe
#> # A tibble: 8,863 × 4
#>    Gene        FE_1   FE_2 log2_mean_FE
#>    <chr>      <dbl>  <dbl>        <dbl>
#>  1 Adcyap1    6.16   9.05          2.93
#>  2 Bdnf       2.77   5.30          2.01
#>  3 Ucn3      14.3    7.96          3.47
#>  4 Gng8       7.38  12.7           3.33
#>  5 Nme4       9.51   4.21          2.78
#>  6 Nxph4      3.35   4.66          2.00
#>  7 Hist1h2bg  0.400 14.2           2.87
#>  8 Ghrh       6.31   5.17          2.52
#>  9 Hist1h4m  15.2    0.455         2.97
#> 10 Samd3      4.85   7.39          2.61
#> # ℹ 8,853 more rows
…
